Phase1/simulation/modelsim/booth_mult_32bit.vcd
$date
	Thu Feb 13 14:55:23 2025
$end
$version
	ModelSim Version 10.5b
$end
$timescale
	1ps
$end

$scope module boothMul_tb $end
$var reg 32 ! multiplicand [31:0] $end
$var reg 32 " multiplier [31:0] $end
$var wire 1 # product [63] $end
$var wire 1 $ product [62] $end
$var wire 1 % product [61] $end
$var wire 1 & product [60] $end
$var wire 1 ' product [59] $end
$var wire 1 ( product [58] $end
$var wire 1 ) product [57] $end
$var wire 1 * product [56] $end
$var wire 1 + product [55] $end
$var wire 1 , product [54] $end
$var wire 1 - product [53] $end
$var wire 1 . product [52] $end
$var wire 1 / product [51] $end
$var wire 1 0 product [50] $end
$var wire 1 1 product [49] $end
$var wire 1 2 product [48] $end
$var wire 1 3 product [47] $end
$var wire 1 4 product [46] $end
$var wire 1 5 product [45] $end
$var wire 1 6 product [44] $end
$var wire 1 7 product [43] $end
$var wire 1 8 product [42] $end
$var wire 1 9 product [41] $end
$var wire 1 : product [40] $end
$var wire 1 ; product [39] $end
$var wire 1 < product [38] $end
$var wire 1 = product [37] $end
$var wire 1 > product [36] $end
$var wire 1 ? product [35] $end
$var wire 1 @ product [34] $end
$var wire 1 A product [33] $end
$var wire 1 B product [32] $end
$var wire 1 C product [31] $end
$var wire 1 D product [30] $end
$var wire 1 E product [29] $end
$var wire 1 F product [28] $end
$var wire 1 G product [27] $end
$var wire 1 H product [26] $end
$var wire 1 I product [25] $end
$var wire 1 J product [24] $end
$var wire 1 K product [23] $end
$var wire 1 L product [22] $end
$var wire 1 M product [21] $end
$var wire 1 N product [20] $end
$var wire 1 O product [19] $end
$var wire 1 P product [18] $end
$var wire 1 Q product [17] $end
$var wire 1 R product [16] $end
$var wire 1 S product [15] $end
$var wire 1 T product [14] $end
$var wire 1 U product [13] $end
$var wire 1 V product [12] $end
$var wire 1 W product [11] $end
$var wire 1 X product [10] $end
$var wire 1 Y product [9] $end
$var wire 1 Z product [8] $end
$var wire 1 [ product [7] $end
$var wire 1 \ product [6] $end
$var wire 1 ] product [5] $end
$var wire 1 ^ product [4] $end
$var wire 1 _ product [3] $end
$var wire 1 ` product [2] $end
$var wire 1 a product [1] $end
$var wire 1 b product [0] $end

$scope task verify_multiplication $end
$var reg 32 c a [31:0] $end
$var reg 32 d b [31:0] $end
$upscope $end

$scope module BA $end
$var wire 1 e multiplicand [31] $end
$var wire 1 f multiplicand [30] $end
$var wire 1 g multiplicand [29] $end
$var wire 1 h multiplicand [28] $end
$var wire 1 i multiplicand [27] $end
$var wire 1 j multiplicand [26] $end
$var wire 1 k multiplicand [25] $end
$var wire 1 l multiplicand [24] $end
$var wire 1 m multiplicand [23] $end
$var wire 1 n multiplicand [22] $end
$var wire 1 o multiplicand [21] $end
$var wire 1 p multiplicand [20] $end
$var wire 1 q multiplicand [19] $end
$var wire 1 r multiplicand [18] $end
$var wire 1 s multiplicand [17] $end
$var wire 1 t multiplicand [16] $end
$var wire 1 u multiplicand [15] $end
$var wire 1 v multiplicand [14] $end
$var wire 1 w multiplicand [13] $end
$var wire 1 x multiplicand [12] $end
$var wire 1 y multiplicand [11] $end
$var wire 1 z multiplicand [10] $end
$var wire 1 { multiplicand [9] $end
$var wire 1 | multiplicand [8] $end
$var wire 1 } multiplicand [7] $end
$var wire 1 ~ multiplicand [6] $end
$var wire 1 !! multiplicand [5] $end
$var wire 1 "! multiplicand [4] $end
$var wire 1 #! multiplicand [3] $end
$var wire 1 $! multiplicand [2] $end
$var wire 1 %! multiplicand [1] $end
$var wire 1 &! multiplicand [0] $end
$var wire 1 '! multiplier [31] $end
$var wire 1 (! multiplier [30] $end
$var wire 1 )! multiplier [29] $end
$var wire 1 *! multiplier [28] $end
$var wire 1 +! multiplier [27] $end
$var wire 1 ,! multiplier [26] $end
$var wire 1 -! multiplier [25] $end
$var wire 1 .! multiplier [24] $end
$var wire 1 /! multiplier [23] $end
$var wire 1 0! multiplier [22] $end
$var wire 1 1! multiplier [21] $end
$var wire 1 2! multiplier [20] $end
$var wire 1 3! multiplier [19] $end
$var wire 1 4! multiplier [18] $end
$var wire 1 5! multiplier [17] $end
$var wire 1 6! multiplier [16] $end
$var wire 1 7! multiplier [15] $end
$var wire 1 8! multiplier [14] $end
$var wire 1 9! multiplier [13] $end
$var wire 1 :! multiplier [12] $end
$var wire 1 ;! multiplier [11] $end
$var wire 1 <! multiplier [10] $end
$var wire 1 =! multiplier [9] $end
$var wire 1 >! multiplier [8] $end
$var wire 1 ?! multiplier [7] $end
$var wire 1 @! multiplier [6] $end
$var wire 1 A! multiplier [5] $end
$var wire 1 B! multiplier [4] $end
$var wire 1 C! multiplier [3] $end
$var wire 1 D! multiplier [2] $end
$var wire 1 E! multiplier [1] $end
$var wire 1 F! multiplier [0] $end
$var reg 64 G! product [63:0] $end
$var reg 64 H! A [63:0] $end
$var reg 64 I! Q [63:0] $end
$var reg 64 J! M [63:0] $end
$var reg 1 K! prev $end
$var integer 32 L! i $end
$upscope $end
$upscope $end
$enddefinitions $end
#0
$dumpvars
b1111011 !
b111001000 "
b1101101100011000 G!
b1101101100011000 H!
b111001000 I!
b111101100000000000000000000000000000000 J!
0K!
b1111011 c
b111001000 d
b100000 L!
0b
0a
0`
1_
1^
0]
0\
0[
1Z
1Y
0X
1W
1V
0U
1T
1S
0R
0Q
0P
0O
0N
0M
0L
0K
0J
0I
0H
0G
0F
0E
0D
0C
0B
0A
0@
0?
0>
0=
0<
0;
0:
09
08
07
06
05
04
03
02
01
00
0/
0.
0-
0,
0+
0*
0)
0(
0'
0&
0%
0$
0#
0F!
0E!
0D!
1C!
0B!
0A!
1@!
1?!
1>!
0=!
0<!
0;!
0:!
09!
08!
07!
06!
05!
04!
03!
02!
01!
00!
0/!
0.!
0-!
0,!
0+!
0*!
0)!
0(!
0'!
1&!
1%!
0$!
1#!
1"!
1!!
1~
0}
0|
0{
0z
0y
0x
0w
0v
0u
0t
0s
0r
0q
0p
0o
0n
0m
0l
0k
0j
0i
0h
0g
0f
0e
$end
#10
b11111111111111111111111111001001 c
b1101 d
b11111111111111111111111111001001 !
b1101 "
1F!
1D!
0@!
0?!
0>!
0%!
0"!
0!!
1}
1|
1{
1z
1y
1x
1w
1v
1u
1t
1s
1r
1q
1p
1o
1n
1m
1l
1k
1j
1i
1h
1g
1f
1e
b0 H!
b1101 I!
b1111111111111111111111111111111111111111111111111111111111001001 J!
b0 L!
b1111111111111111111111111111111111111111111111111111111111001001 H!
b1111111111111111111111111111111111111111111111111111111100100100 J!
b10 L!
b10100101 H!
1K!
b1111111111111111111111111111111111111111111111111111110010010000 J!
b100 L!
b1111111111111111111111111111111111111111111111111111110100110101 H!
0K!
b1111111111111111111111111111111111111111111111111111001001000000 J!
b110 L!
b1111111111111111111111111111111111111111111111111100100100000000 J!
b1000 L!
b1111111111111111111111111111111111111111111111110010010000000000 J!
b1010 L!
b1111111111111111111111111111111111111111111111001001000000000000 J!
b1100 L!
b1111111111111111111111111111111111111111111100100100000000000000 J!
b1110 L!
b1111111111111111111111111111111111111111110010010000000000000000 J!
b10000 L!
b1111111111111111111111111111111111111111001001000000000000000000 J!
b10010 L!
b1111111111111111111111111111111111111100100100000000000000000000 J!
b10100 L!
b1111111111111111111111111111111111110010010000000000000000000000 J!
b10110 L!
b1111111111111111111111111111111111001001000000000000000000000000 J!
b11000 L!
b1111111111111111111111111111111100100100000000000000000000000000 J!
b11010 L!
b1111111111111111111111111111110010010000000000000000000000000000 J!
b11100 L!
b1111111111111111111111111111001001000000000000000000000000000000 J!
b11110 L!
b1111111111111111111111111100100100000000000000000000000000000000 J!
b100000 L!
b1111111111111111111111111111111111111111111111111111110100110101 G!
1b
1`
0_
1]
0Y
1X
1U
1R
1Q
1P
1O
1N
1M
1L
1K
1J
1I
1H
1G
1F
1E
1D
1C
1B
1A
1@
1?
1>
1=
1<
1;
1:
19
18
17
16
15
14
13
12
11
10
1/
1.
1-
1,
1+
1*
1)
1(
1'
1&
1%
1$
1#
#20
b1100010101 c
b11111111111111111111111010111111 d
b1100010101 !
b11111111111111111111111010111111 "
1E!
1B!
1A!
1?!
1=!
1<!
1;!
1:!
19!
18!
17!
16!
15!
14!
13!
12!
11!
10!
1/!
1.!
1-!
1,!
1+!
1*!
1)!
1(!
1'!
1$!
0#!
1"!
0~
0}
0z
0y
0x
0w
0v
0u
0t
0s
0r
0q
0p
0o
0n
0m
0l
0k
0j
0i
0h
0g
0f
0e
b0 H!
b11111111111111111111111010111111 I!
b1100010101 J!
b0 L!
b1111111111111111111111111111111111111111111111111111110011101011 H!
1K!
b110001010100 J!
b10 L!
b11000101010000 J!
b100 L!
b1100010101000000 J!
b110 L!
b1111111111111111111111111111111111111111111111110011011110101011 H!
b110001010100000000 J!
b1000 L!
b1111111111111111111111111111111111111111111111000010001010101011 H!
b11000101010000000000 J!
b1010 L!
b1100010101000000000000 J!
b1100 L!
b110001010100000000000000 J!
b1110 L!
b11000101010000000000000000 J!
b10000 L!
b1100010101000000000000000000 J!
b10010 L!
b110001010100000000000000000000 J!
b10100 L!
b11000101010000000000000000000000 J!
b10110 L!
b1100010101000000000000000000000000 J!
b11000 L!
b110001010100000000000000000000000000 J!
b11010 L!
b11000101010000000000000000000000000000 J!
b11100 L!
b1100010101000000000000000000000000000000 J!
b11110 L!
b110001010100000000000000000000000000000000 J!
b100000 L!
b1111111111111111111111111111111111111111111111000010001010101011 G!
1a
0`
1_
0^
1[
0Z
1Y
0X
0W
0V
0T
0S
0R
0Q
#30
b11111111111111111111111001000100 c
b11111111111111111111111010110011 d
b11111111111111111111111001000100 !
b11111111111111111111111010110011 "
0D!
0C!
0&!
0"!
1~
0|
1z
1y
1x
1w
1v
1u
1t
1s
1r
1q
1p
1o
1n
1m
1l
1k
1j
1i
1h
1g
1f
1e
b0 H!
b11111111111111111111111010110011 I!
b1111111111111111111111111111111111111111111111111111111001000100 J!
0K!
b0 L!
b110111100 H!
1K!
b1111111111111111111111111111111111111111111111111111100100010000 J!
b10 L!
b1111111111111111111111111111111111111111111111111111101011001100 H!
0K!
b1111111111111111111111111111111111111111111111111110010001000000 J!
b100 L!
b1011010001100 H!
1K!
b1111111111111111111111111111111111111111111111111001000100000000 J!
b110 L!
b1000010110001100 H!
b1111111111111111111111111111111111111111111111100100010000000000 J!
b1000 L!
b100100000110001100 H!
b1111111111111111111111111111111111111111111110010001000000000000 J!
b1010 L!
b1111111111111111111111111111111111111111111001000100000000000000 J!
b1100 L!
b1111111111111111111111111111111111111111100100010000000000000000 J!
b1110 L!
b1111111111111111111111111111111111111110010001000000000000000000 J!
b10000 L!
b1111111111111111111111111111111111111001000100000000000000000000 J!
b10010 L!
b1111111111111111111111111111111111100100010000000000000000000000 J!
b10100 L!
b1111111111111111111111111111111110010001000000000000000000000000 J!
b10110 L!
b1111111111111111111111111111111001000100000000000000000000000000 J!
b11000 L!
b1111111111111111111111111111100100010000000000000000000000000000 J!
b11010 L!
b1111111111111111111111111110010001000000000000000000000000000000 J!
b11100 L!
b1111111111111111111111111001000100000000000000000000000000000000 J!
b11110 L!
b1111111111111111111111100100010000000000000000000000000000000000 J!
b100000 L!
b100100000110001100 G!
0b
0a
1`
0]
1Z
0Y
0U
1T
1Q
0P
0O
0N
0M
0L
0K
0J
0I
0H
0G
0F
0E
0D
0C
0B
0A
0@
0?
0>
0=
0<
0;
0:
09
08
07
06
05
04
03
02
01
00
0/
0.
0-
0,
0+
0*
0)
0(
0'
0&
0%
0$
0#
#40
b0 c
b11000000111001 d
b0 !
b11000000111001 "
0E!
1C!
0?!
0=!
0<!
0;!
08!
07!
06!
05!
04!
03!
02!
01!
00!
0/!
0.!
0-!
0,!
0+!
0*!
0)!
0(!
0'!
0$!
0~
0{
0z
0y
0x
0w
0v
0u
0t
0s
0r
0q
0p
0o
0n
0m
0l
0k
0j
0i
0h
0g
0f
0e
b0 H!
b11000000111001 I!
b0 J!
0K!
b0 L!
b10 L!
1K!
b100 L!
b110 L!
0K!
b1000 L!
b1010 L!
b1100 L!
1K!
b1110 L!
0K!
b10000 L!
b10010 L!
b10100 L!
b10110 L!
b11000 L!
b11010 L!
b11100 L!
b11110 L!
b100000 L!
b0 G!
0`
0_
0[
0Z
0T
0Q
#50
b10000100100110010 c
b0 d
b10000100100110010 !
b0 "
0F!
0C!
0B!
0A!
0:!
09!
1%!
1"!
1!!
1|
1y
1t
b0 I!
b10000100100110010 J!
b0 L!
b1000010010011001000 J!
b10 L!
b100001001001100100000 J!
b100 L!
b10000100100110010000000 J!
b110 L!
b1000010010011001000000000 J!
b1000 L!
b100001001001100100000000000 J!
b1010 L!
b10000100100110010000000000000 J!
b1100 L!
b1000010010011001000000000000000 J!
b1110 L!
b100001001001100100000000000000000 J!
b10000 L!
b10000100100110010000000000000000000 J!
b10010 L!
b1000010010011001000000000000000000000 J!
b10100 L!
b100001001001100100000000000000000000000 J!
b10110 L!
b10000100100110010000000000000000000000000 J!
b11000 L!
b1000010010011001000000000000000000000000000 J!
b11010 L!
b100001001001100100000000000000000000000000000 J!
b11100 L!
b10000100100110010000000000000000000000000000000 J!
b11110 L!
b1000010010011001000000000000000000000000000000000 J!
b100000 L!
#60
b1000000000000000 c
b10000000000000000 d
b1000000000000000 !
b10000000000000000 "
16!
0%!
0"!
0!!
0|
0y
1u
0t
b10000000000000000 I!
b1000000000000000 J!
b0 L!
b100000000000000000 J!
b10 L!
b10000000000000000000 J!
b100 L!
b1000000000000000000000 J!
b110 L!
b100000000000000000000000 J!
b1000 L!
b10000000000000000000000000 J!
b1010 L!
b1000000000000000000000000000 J!
b1100 L!
b100000000000000000000000000000 J!
b1110 L!
b10000000000000000000000000000000 J!
b10000 L!
b10000000000000000000000000000000 H!
b1000000000000000000000000000000000 J!
b10010 L!
b100000000000000000000000000000000000 J!
b10100 L!
b10000000000000000000000000000000000000 J!
b10110 L!
b1000000000000000000000000000000000000000 J!
b11000 L!
b100000000000000000000000000000000000000000 J!
b11010 L!
b10000000000000000000000000000000000000000000 J!
b11100 L!
b1000000000000000000000000000000000000000000000 J!
b11110 L!
b100000000000000000000000000000000000000000000000 J!
b100000 L!
b10000000000000000000000000000000 G!
1C
#70
b1111111111111111111111111111111 c
b10 d
b1111111111111111111111111111111 !
b10 "
1E!
06!
1&!
1%!
1$!
1#!
1"!
1!!
1~
1}
1|
1{
1z
1y
1x
1w
1v
1t
1s
1r
1q
1p
1o
1n
1m
1l
1k
1j
1i
1h
1g
1f
b0 H!
b10 I!
b1111111111111111111111111111111 J!
b0 L!
b1111111111111111111111111111111100000000000000000000000000000010 H!
1K!
b111111111111111111111111111111100 J!
b10 L!
b11111111111111111111111111111110 H!
0K!
b11111111111111111111111111111110000 J!
b100 L!
b1111111111111111111111111111111000000 J!
b110 L!
b111111111111111111111111111111100000000 J!
b1000 L!
b11111111111111111111111111111110000000000 J!
b1010 L!
b1111111111111111111111111111111000000000000 J!
b1100 L!
b111111111111111111111111111111100000000000000 J!
b1110 L!
b11111111111111111111111111111110000000000000000 J!
b10000 L!
b1111111111111111111111111111111000000000000000000 J!
b10010 L!
b111111111111111111111111111111100000000000000000000 J!
b10100 L!
b11111111111111111111111111111110000000000000000000000 J!
b10110 L!
b1111111111111111111111111111111000000000000000000000000 J!
b11000 L!
b111111111111111111111111111111100000000000000000000000000 J!
b11010 L!
b11111111111111111111111111111110000000000000000000000000000 J!
b11100 L!
b1111111111111111111111111111111000000000000000000000000000000 J!
b11110 L!
b111111111111111111111111111111100000000000000000000000000000000 J!
b100000 L!
b11111111111111111111111111111110 G!
1a
1`
1_
1^
1]
1\
1[
1Z
1Y
1X
1W
1V
1U
1T
1S
1R
1Q
1P
1O
1N
1M
1L
1K
1J
1I
1H
1G
1F
1E
1D
#80
b11111111111100000000000000000000 c
b10000000000 d
b11111111111100000000000000000000 !
b10000000000 "
0E!
1<!
0&!
0%!
0$!
0#!
0"!
0!!
0~
0}
0|
0{
0z
0y
0x
0w
0v
0u
0t
0s
0r
0q
1e
b0 H!
b10000000000 I!
b1111111111111111111111111111111111111111111100000000000000000000 J!
b0 L!
b1111111111111111111111111111111111111111110000000000000000000000 J!
b10 L!
b1111111111111111111111111111111111111111000000000000000000000000 J!
b100 L!
b1111111111111111111111111111111111111100000000000000000000000000 J!
b110 L!
b1111111111111111111111111111111111110000000000000000000000000000 J!
b1000 L!
b1111111111111111111111111111111111000000000000000000000000000000 J!
b1010 L!
b1111111111111111111111111111111111000000000000000000000000000000 H!
b1111111111111111111111111111111100000000000000000000000000000000 J!
b1100 L!
b1111111111111111111111111111110000000000000000000000000000000000 J!
b1110 L!
b1111111111111111111111111111000000000000000000000000000000000000 J!
b10000 L!
b1111111111111111111111111100000000000000000000000000000000000000 J!
b10010 L!
b1111111111111111111111110000000000000000000000000000000000000000 J!
b10100 L!
b1111111111111111111111000000000000000000000000000000000000000000 J!
b10110 L!
b1111111111111111111100000000000000000000000000000000000000000000 J!
b11000 L!
b1111111111111111110000000000000000000000000000000000000000000000 J!
b11010 L!
b1111111111111111000000000000000000000000000000000000000000000000 J!
b11100 L!
b1111111111111100000000000000000000000000000000000000000000000000 J!
b11110 L!
b1111111111110000000000000000000000000000000000000000000000000000 J!
b100000 L!
b1111111111111111111111111111111111000000000000000000000000000000 G!
0a
0`
0_
0^
0]
0\
0[
0Z
0Y
0X
0W
0V
0U
0T
0S
0R
0Q
0P
0O
0N
0M
0L
0K
0J
0I
0H
0G
0F
0E
1B
1A
1@
1?
1>
1=
1<
1;
1:
19
18
17
16
15
14
13
12
11
10
1/
1.
1-
1,
1+
1*
1)
1(
1'
1&
1%
1$
1#
#90
b10000000000000000000000000000000 c
b10 d
b10000000000000000000000000000000 !
b10 "
1E!
0<!
0p
0o
0n
0m
0l
0k
0j
0i
0h
0g
0f
b0 H!
b10 I!
b1111111111111111111111111111111110000000000000000000000000000000 J!
b0 L!
b100000000000000000000000000000000 H!
1K!
b1111111111111111111111111111111000000000000000000000000000000000 J!
b10 L!
b1111111111111111111111111111111100000000000000000000000000000000 H!
0K!
b1111111111111111111111111111100000000000000000000000000000000000 J!
b100 L!
b1111111111111111111111111110000000000000000000000000000000000000 J!
b110 L!
b1111111111111111111111111000000000000000000000000000000000000000 J!
b1000 L!
b1111111111111111111111100000000000000000000000000000000000000000 J!
b1010 L!
b1111111111111111111110000000000000000000000000000000000000000000 J!
b1100 L!
b1111111111111111111000000000000000000000000000000000000000000000 J!
b1110 L!
b1111111111111111100000000000000000000000000000000000000000000000 J!
b10000 L!
b1111111111111110000000000000000000000000000000000000000000000000 J!
b10010 L!
b1111111111111000000000000000000000000000000000000000000000000000 J!
b10100 L!
b1111111111100000000000000000000000000000000000000000000000000000 J!
b10110 L!
b1111111110000000000000000000000000000000000000000000000000000000 J!
b11000 L!
b1111111000000000000000000000000000000000000000000000000000000000 J!
b11010 L!
b1111100000000000000000000000000000000000000000000000000000000000 J!
b11100 L!
b1110000000000000000000000000000000000000000000000000000000000000 J!
b11110 L!
b1000000000000000000000000000000000000000000000000000000000000000 J!
b100000 L!
b1111111111111111111111111111111100000000000000000000000000000000 G!
0D
0C
#100
b100101101011010000111 c
b1 d
b100101101011010000111 !
b1 "
1F!
0E!
1&!
1%!
1$!
1}
1{
1z
1x
1v
1u
1s
1p
0e
b0 H!
b1 I!
b100101101011010000111 J!
b0 L!
b100101101011010000111 H!
b10010110101101000011100 J!
b10 L!
b1001011010110100001110000 J!
b100 L!
b100101101011010000111000000 J!
b110 L!
b10010110101101000011100000000 J!
b1000 L!
b1001011010110100001110000000000 J!
b1010 L!
b100101101011010000111000000000000 J!
b1100 L!
b10010110101101000011100000000000000 J!
b1110 L!
b1001011010110100001110000000000000000 J!
b10000 L!
b100101101011010000111000000000000000000 J!
b10010 L!
b10010110101101000011100000000000000000000 J!
b10100 L!
b1001011010110100001110000000000000000000000 J!
b10110 L!
b100101101011010000111000000000000000000000000 J!
b11000 L!
b10010110101101000011100000000000000000000000000 J!
b11010 L!
b1001011010110100001110000000000000000000000000000 J!
b11100 L!
b100101101011010000111000000000000000000000000000000 J!
b11110 L!
b10010110101101000011100000000000000000000000000000000 J!
b100000 L!
b100101101011010000111 G!
1b
1a
1`
1[
1Y
1X
1V
1T
1S
1Q
1N
0B
0A
0@
0?
0>
0=
0<
0;
0:
09
08
07
06
05
04
03
02
01
00
0/
0.
0-
0,
0+
0*
0)
0(
0'
0&
0%
0$
0#
